[
    {
      "id": 1,
      "title": "Deer",
      "price": "233",
      "img": "/sound1.png",
      "article": "1126445",
      "color": "black"
    },
    {
      "id": 2,
      "title": "Texas renegade",
      "price": "213",
      "img": "/sound2.png",
      "article": "1139845",
      "color": "black"
    },
    {
      "id": 3,
      "title": "Awaken the hero",
      "price": "254",
      "img": "/sound3.png",
      "article": "1129564",
      "color": "black"
    },
    {
      "id": 4,
      "title": "Back from the grave",
      "price": "247",
      "img": "/sound4.png",
      "article": "1149245",
      "color": "black"
    },
    {
      "id": 5,
      "title": "Aqualung",
      "price": "237",
      "img": "/sound5.png",
      "article": "1198453",
      "color": "black"
    },
    {
      "id": 6,
      "title": "Caribou",
      "price": "310",
      "img": "/sound6.png",
      "article": "1412785",
      "color": "black"
    },
    {
      "id": 7,
      "title": "Strange to your ears",
      "price": "270",
      "img": "/sound7.png",
      "article": "1168445",
      "color": "black"
    },
    {
      "id": 8,
      "title": "Nirvana",
      "price": "314",
      "img": "/sound8.png",
      "article": "9716412",
      "color": "black"
    },
    {
      "id": 9,
      "title": "Blond",
      "price": "415",
      "img": "/sound9.png",
      "article": "1264327",
      "color": "black"
    },
    {
      "id": 10,
      "title": "Bloom",
      "price": "352",
      "img": "/sound10.png",
      "article": "3167547",
      "color": "black"
    }]